%YAML 1.1
%TAG !u! tag:unity3d.com,2011:
--- !u!21 &2100000
Material:
  serializedVersion: 6
  m_ObjectHideFlags: 0
  m_CorrespondingSourceObject: {fileID: 0}
  m_PrefabInstance: {fileID: 0}
  m_PrefabAsset: {fileID: 0}
  m_Name: Toon Texture Dining Chair
  m_Shader: {fileID: -6465566751694194690, guid: 4aa46d33b0afb5e49bb0703218e42e0e,
    type: 3}
  m_ShaderKeywords: 
  m_LightmapFlags: 4
  m_EnableInstancingVariants: 0
  m_DoubleSidedGI: 0
  m_CustomRenderQueue: -1
  stringTagMap: {}
  disabledShaderPasses: []
  m_SavedProperties:
    serializedVersion: 3
    m_TexEnvs:
    - Texture2D_B2CE6AAF:
        m_Texture: {fileID: 2800000, guid: 5142e3b043fa66f4bbde2243dac3e04d, type: 3}
        m_Scale: {x: 1, y: 1}
        m_Offset: {x: 0, y: 0}
    m_Floats:
    - Vector1_38BD3441: 0.589
    - Vector1_CF8B0D8D: 3
    - Vector1_ED5ABFD9: 0
    - Vector1_F3F6B787: 0.018
    m_Colors:
    - Color_28180829: {r: 0.6226415, g: 0.6226415, b: 0.6226415, a: 1}
    - Color_57D43A16: {r: 1, g: 1, b: 1, a: 0}
    - Color_F689E8B9: {r: 0.9150943, g: 0.9150943, b: 0.9150943, a: 1}
